1,update-addrole,2017-3-30,1003,beer,20,5000,ta,parttime,term,10001,10101,5000,0,0,2016-5-1,2016-6-1
2,update-addrole,2017-3-30,1004,tiger,21,5000,ra,parttime,term,10002,0,0,0,0,0,0
3,update-addrole,2017-3-30,1005,ramsey,20,5000,ra,parttime,term,10003,0,0,0,0,0,0
4,update,2017-3-30,1010,ipec,21,5000,ra,parttime,term,10004,10109,5000,0,0,2016-5-1,2016-6-1
5,update,2017-3-30,1011,qube,22,5000,faculty,fulltime,term,10005,10110,5000,0,0,2016-5-1,2016-6-1
6,update,2017-3-30,1012,lati,23,5000,ra,parttime,term,10006,0,0,0,0,0,0
7,update,2017-3-30,1013,saku,24,5000,ra,parttime,term,10007,0,0,0,0,0,0
8,update,2017-3-30,1014,yoka,25,5000,ra,parttime,term,10008,0,0,0,0,0,0
9,update-addpay,2017-3-30,1015,sanji,32,5000,faculty,fulltime,continuing,120,11001,10000,0,0,2016-5-1,2016-6-1
10,update-addpay,2017-3-30,1016,nami,33,5000,faculty,fulltime,continuing,121,11002,10000,0,0,2016-5-1,2016-6-1
11,update-addpay,2017-3-30,1017,godusp,34,5000,faculty,fulltime,continuing,122,11003,10000,0,0,2016-5-1,2016-6-1
12,update-adjust,2017-3-30,1018,franky,35,5000,faculty,fulltime,continuing,123,11004,7000,0,0,2016-5-1,2016-6-1
13,update-adjust,2017-3-30,1019,brook,36,5000,faculty,fulltime,continuing,124,11005,8000,0,0,2016-5-1,2016-6-1
14,update-adjust,2017-3-30,1020,monkey,37,5000,faculty,fulltime,continuing,125,11006,0,0,1000,2016-5-1,2016-6-1
15,update-raise,2017-3-30,1021,law,38,5000,stuff,parttime,continuing,126,11007,0,2000,0,2016-5-1,2016-6-1
16,update-raise,2017-3-30,1022,ivanka,39,5000,stuff,parttime,continuing,127,11008,0,2000,0,2016-5-1,2016-6-1
17,update-raise,2017-3-30,1023,mr.3,40,5000,stuff,parttime,continuing,128,11009,0,20,0,2016-5-1,2016-6-1
18,update-raise,2017-3-30,1024,mr.2,41,5000,stuff,parttime,continuing,129,11010,0,20,0,2016-5-1,2016-6-1
19,add,2017-3-30,1105,lasvigasda,36,5000,stuff,fulltime,term,10017,11012,5000,0,0,2016-5-1,2016-6-1
20,add,2017-3-30,1106,tomadanda,37,5000,ra,parttime,term,10018,11013,5000,0,0,2016-5-1,2016-6-1
21,add,2017-3-30,1107,evadasan,38,5000,faculty,fulltime,term,10019,11014,5000,0,0,2016-5-1,2016-6-1
22,add,2017-3-30,1108,lasanboom,39,5000,ta,parttime,term,10020,11015,5000,0,0,2016-5-1,2016-6-1
23,add,2017-3-30,1109,newgate,40,5000,stuff,parttime,term,10020,11016,5000,0,0,2016-5-1,2016-6-1
24,add,2017-3-30,1110,edwar,41,5000,ra,parttime,term,10021,11017,5000,0,0,2016-5-1,2016-6-1
25,remove-role,2017-3-30,1006,,,,,,,103,0,0,0,0,0,0
26,remove-role,2017-3-30,1007,,,,,,,105,0,0,0,0,0,0
27,remove-role,2017-3-30,1008,,,,,,,108,0,0,0,0,0,0
28,remove,2017-3-30,1033,,,,,,,,0,0,0,0,0,0
29,remove,2017-3-30,1034,,,,,,,,0,0,0,0,0,0
30,remove,2017-3-30,1035,,,,,,,,0,0,0,0,0,0
31,remove,2017-3-30,1036,,,,,,,,0,0,0,0,0,0
